AC/726020_Cecilia_Bouchardet_Guia_09/Exemplo0905.vcd
$date
	Fri Oct  1 15:55:29 2021
$end
$version
	Icarus Verilog
$end
$timescale
	1s
$end
$scope module Exemplo_0905 $end
$var wire 1 ! clock $end
$upscope $end
$scope module Exemplo_0905 $end
$var wire 1 " p1 $end
$upscope $end
$scope module Exemplo_0905 $end
$var reg 1 # p $end
$upscope $end
$scope module Exemplo_0905 $end
$var wire 1 $ t1 $end
$upscope $end
$enddefinitions $end
#0
$dumpvars
x$
0#
1"
0!
$end
#3
0"
#6
1"
#9
0"
#36
1"
1!
#39
0"
#42
1"
#45
0"
#60
1#
#72
1"
0!
#75
0"
#78
1"
#81
0"
#108
1"
1!
#111
0"
#114
1"
#117
0"
#120
1$
#144
1"
0!
#147
0"
#150
1"
#153
0"
#180
1"
1!
0$
0#
#183
0"
#186
1"
#189
0"
#216
1"
0!
#219
0"
#222
1"
#225
0"
#252
1"
1!
#255
0"
#258
1"
#261
0"
#288
1"
0!
#291
0"
#294
1"
#297
0"
#324
1"
1!
#327
0"
#330
1"
#333
0"
#360
1"
0!
1#
#363
0"
#366
1"
#369
0"
#396
1"
1!
#399
0"
#402
1"
#405
0"
#432
1"
0!
#435
0"
#438
1"
#441
0"
#456
1$
#468
1"
1!
#471
0"
#474
1"
#477
0"
#504
1"
0!
#507
0"
#510
1"
#513
0"
#516
0$
#540
1"
1!
#543
0"
#546
1"
#549
0"
#576
1"
0!
#579
0"
#582
1"
#585
0"
#600
1$
0#
#612
1"
1!
#615
0"
#618
1"
#621
0"
#648
1"
0!
#651
0"
#654
1"
#657
0"
#660
0$
#684
1"
1!
#687
0"
#690
1"
#693
0"
#720
1"
0!
#723
0"
#726
1"
#729
0"
#756
1"
1!
#759
0"
#762
1"
#765
0"
#792
1"
0!
#795
0"
#798
1"
#801
0"
#828
1"
1!
#831
0"
#834
1"
#837
0"
#864
1"
0!
#867
0"
#870
1"
#873
0"
#900
1"
1!
1#
#903
0"
#906
1"
#909
0"
#936
1"
0!
#939
0"
#942
1"
#945
0"
#960
1$
#972
1"
1!
#975
0"
#978
1"
#981
0"
#1008
1"
0!
#1011
0"
#1014
1"
#1017
0"
#1020
0$
#1044
1"
1!
#1047
0"
#1050
1"
#1053
0"
#1080
1"
0!
#1083
0"
#1086
1"
#1089
0"
#1104
1$
#1116
1"
1!
#1119
0"
#1122
1"
#1125
0"
#1152
1"
0!
#1155
0"
#1158
1"
#1161
0"
#1164
0$
#1188
1"
1!
#1191
0"
#1194
1"
#1197
0"
#1224
1"
0!
#1227
0"
#1230
1"
#1233
0"
#1248
1$
#1260
1"
1!
0#
#1263
0"
#1266
1"
#1269
0"
#1296
1"
0!
#1299
0"
#1302
1"
#1305
0"
#1308
0$
#1332
1"
1!
#1335
0"
#1338
1"
#1341
0"
#1368
1"
0!
#1371
0"
#1374
1"
#1377
0"
#1404
1"
1!
#1407
0"
#1410
1"
#1413
0"
#1440
1"
0!
#1443
0"
#1446
1"
#1449
0"
#1476
1"
1!
#1479
0"
#1482
1"
#1485
0"
#1512
1"
0!
#1515
0"
#1518
1"
#1521
0"
#1548
1"
1!
#1551
0"
#1554
1"
#1557
0"
#1584
1"
0!
#1587
0"
#1590
1"
#1593
0"
#1620
1"
1!
#1623
0"
#1626
1"
#1629
0"
